<svg width="133" height="25" viewBox="0 0 133 25" fill="none" xmlns="http://www.w3.org/2000/svg">
<g clip-path="url(#clip0_2283_25)">
<path d="M9.27093 20.661C6.72033 23.1841 2.40058 23.174 1.19419 19.8113C0.957996 19.153 0.76915 18.476 0.630255 17.7853C0.0631474 14.965 0.354208 12.0417 1.46663 9.38501C2.57905 6.72841 4.46287 4.45773 6.87986 2.86017C9.2969 1.26261 12.1385 0.409912 15.0454 0.409912C17.9523 0.409912 20.7939 1.26261 23.2109 2.86017C25.6279 4.45773 27.5117 6.72841 28.6241 9.38509C29.7366 12.0417 30.0276 14.965 29.4605 17.7853C29.3216 18.476 29.1328 19.153 28.8965 19.8113C27.6901 23.174 23.3704 23.1841 20.8198 20.661L16.8826 16.7662C16.5064 16.3941 16.5453 15.7805 16.6491 15.2644C16.7121 14.9507 16.6797 14.6255 16.556 14.3299C16.4322 14.0344 16.2227 13.7817 15.9538 13.604C15.6849 13.4264 15.3688 13.3315 15.0454 13.3315C14.722 13.3315 14.4059 13.4264 14.137 13.604C13.8681 13.7817 13.6585 14.0344 13.5348 14.3299C13.411 14.6255 13.3786 14.9507 13.4418 15.2644C13.5455 15.7805 13.5843 16.3941 13.2082 16.7662L9.27093 20.661Z" fill="url(#paint0_linear_2283_25)"/>
</g>
<defs>
<linearGradient id="paint0_linear_2283_25" x1="28.4051" y1="7.6794" x2="2.31694" y2="7.6794" gradientUnits="userSpaceOnUse">
<stop stop-color="#161490"/>
<stop offset="0.510417" stop-color="#7476ED"/>
<stop offset="1" stop-color="#E56F8C"/>
</linearGradient>
<clipPath id="clip0_2283_25">
<rect width="132.391" height="24.5027" fill="white" transform="translate(0.347839 0.409912)"/>
</clipPath>
</defs>
</svg>

